<?xml version="1.0" encoding="utf-8"?>
<!-- Generator: Adobe Illustrator 19.0.0, SVG Export Plug-In . SVG Version: 6.00 Build 0)  -->
<svg version="1.1"
	 id="svg3710" xmlns:inkscape="http://www.inkscape.org/namespaces/inkscape" xmlns:dc="http://purl.org/dc/elements/1.1/" xmlns:svg="http://www.w3.org/2000/svg" xmlns:cc="http://creativecommons.org/ns#" xmlns:rdf="http://www.w3.org/1999/02/22-rdf-syntax-ns#" xmlns:sodipodi="http://sodipodi.sourceforge.net/DTD/sodipodi-0.dtd" sodipodi:docname="Abierto_mexicano_Telcel_presentado_por_HSBC_logo.svg" inkscape:version="0.48.4 r9939"
	 xmlns="http://www.w3.org/2000/svg" xmlns:xlink="http://www.w3.org/1999/xlink" x="0px" y="0px" viewBox="10 30 100 22"
	 style="enable-background:new 10 30 100 22;" xml:space="preserve">
<style type="text/css">
	.st0{fill:#FFFFFF;}
</style>
<title  id="title3158">Telecel logo</title>
<sodipodi:namedview  id="namedview62" gridtolerance="10" borderopacity="1" objecttolerance="10" showgrid="false" pagecolor="#ffffff" guidetolerance="10" bordercolor="#666666" inkscape:cy="17.540976" inkscape:cx="23.778067" inkscape:zoom="1" inkscape:window-y="-4" inkscape:window-x="-4" inkscape:window-height="844" inkscape:window-maximized="1" inkscape:showpageshadow="false" inkscape:pageopacity="0" inkscape:pageshadow="2" inkscape:window-width="1600" inkscape:current-layer="svg3710">
	</sodipodi:namedview>
<g id="layer1" transform="matrix(0.40086309,0,0,0.38856489,-86.292377,-187.65682)">
	<path id="path3143" inkscape:connector-curvature="0" class="st0" d="M279.3,613.5l1.8,1.7l1.5-1.7h7.4l1.6-2.4h-11.3l-0.3-0.4
		h-3.5l-0.2,0.4h-33.8l-1.6,2.4H279.3z"/>
	<path id="path3155" inkscape:connector-curvature="0" class="st0" d="M278.4,608.6h-4.7l-1.2-1.2h-27.7l1.6-2.4h23.7l0.1-0.5h4.7
		l0.1,0.5h20.6l-1.6,2.4h-16.5C277.5,607.3,277.6,608,278.4,608.6"/>
	<path id="path3159" inkscape:connector-curvature="0" class="st0" d="M272.2,601.2h25.9l1.6-2.4h-27.6l0.4-0.6h-8.2l-0.4,0.6h-13.4
		l-1.6,2.4h17.6l1.1,1.1h5.5L272.2,601.2L272.2,601.2z"/>
	<path id="path3163" inkscape:connector-curvature="0" class="st0" d="M275.2,594.7h27.1l1.6-2.4h-27l-0.2-0.5h-8.1l-0.3,0.5h-13.5
		l-1.6,2.4h12.6c0,0,0.8,0.2,0.3,1h8.4L275.2,594.7L275.2,594.7z"/>
	<path id="path3167" inkscape:connector-curvature="0" class="st0" d="M279.7,588.5h26.6l1.6-2.4h-26l-0.2-0.5h-9l-0.3,0.5h-13.8
		l-1.5,2.4H270c0,0,0.7,0.3,0.2,1h9.1C279.3,589.5,279.3,589.1,279.7,588.5"/>
	<path id="path3171" inkscape:connector-curvature="0" class="st0" d="M283.7,583.3h-9.2c0.5-0.8-0.7-1-0.7-1h-12.7l1.6-2.4h14.1
		l0.4-0.6h9.3l0.4,0.6H312l-1.6,2.4h-26C284.2,582.3,283.9,582.8,283.7,583.3"/>
	<path id="path3175" inkscape:connector-curvature="0" class="st0" d="M290.2,576.2h24.2l1.6-2.4h-23.8l-0.6-1.1h-9.9l-0.8,1.1
		h-14.1l-1.6,2.4h12.6c0,0,1.5,0,0.8,1h11.2C289.8,577.2,289.8,576.9,290.2,576.2"/>
	<path id="path3179" inkscape:connector-curvature="0" class="st0" d="M292.6,567.6H320l-1.6,2.4h-23.3c-0.7,0-1.1,1-1.1,1h-11.1
		c0.6-1-0.7-1-0.7-1h-13l1.6-2.4h20.5l0.9-0.8l2.1-2.8h-0.5l1.8-2.4h1.4l-1.7,2.4h-0.4l-2.2,2.9L292.6,567.6z"/>
	<path id="path3183" inkscape:connector-curvature="0" class="st0" d="M335.9,567.8l-6.4,9.7h-5.2l-4.4,6.6h5.5l-15.7,23.6
		c0,0-1.2,1.9-1.2,4.6c0,2.7,3.4,3.1,3.4,3.1h12l3.8-6.8h-5.9c0,0-2.3-0.3-1.2-2.1c1.1-1.9,14.8-22.3,14.8-22.3h6.9l3.8-6.6h-6.3
		l6.4-9.7L335.9,567.8L335.9,567.8z"/>
	<path id="path3187" inkscape:connector-curvature="0" class="st0" d="M373.2,615.3l30.4-47.5h-10.2L363,615.3H373.2z"/>
	<path id="path3191" inkscape:connector-curvature="0" class="st0" d="M458.5,615.3l30.4-47.5h-10.1l-30.4,47.5H458.5z"/>
	<path id="path3195" inkscape:connector-curvature="0" class="st0" d="M348.2,593.2h16.1c0,0,1.8-3.1,2.3-5.6
		c0.5-2.6-2.4-3.2-5.7-3.2C357.7,584.3,352.7,584.7,348.2,593.2 M368.5,599.8h-24.4c0,0-2.5,3-2.8,5.6c0,0,0,2.1,2.6,2.1h18.8
		l-4.9,7.7h-15.3c0,0-11.6,0-11.6-6.8c0,0-0.1-5.1,8.4-17c8.5-11.9,14.4-12.3,24.2-12.3c9.8,0,12.5,3.1,12.1,5.7
		C375.2,587.8,374.9,589.3,368.5,599.8"/>
	<path id="path3199" inkscape:connector-curvature="0" class="st0" d="M432.7,593.2h16.1c0,0,1.8-3.1,2.3-5.6
		c0.5-2.6-2.4-3.2-5.7-3.2C442.2,584.3,437.2,584.7,432.7,593.2 M453,599.8h-24.4c0,0-2.5,3-2.8,5.6c0,0,0,2.1,2.6,2.1h18.8
		l-4.9,7.7H427c0,0-11.6,0-11.6-6.8c0,0-0.1-5.1,8.4-17s14.4-12.3,24.2-12.3s12.4,3.1,12.2,5.7C459.7,587.8,459.4,589.3,453,599.8"
		/>
	<path id="path3203" inkscape:connector-curvature="0" class="st0" d="M393.6,605.5c0,0,0,2.1,2.6,2.1h16.4l-4.9,7.7h-12.9
		c0,0-12.5,0.4-11.6-6.8c0,0-0.1-5.1,8.4-17c0,0,7.7-12.3,24.4-12.3h11l-5,7.6h-8.9c-0.8,0-7.2,0.7-13,7.1
		C394.3,600.2,393.8,603.3,393.6,605.5"/>
</g>
</svg>
